<?xml version="1.0" encoding="utf-8"?>
<!-- Generator: Adobe Illustrator 19.2.1, SVG Export Plug-In . SVG Version: 6.00 Build 0)  -->
<svg version="1.1" id="Capa_1" xmlns="http://www.w3.org/2000/svg" xmlns:xlink="http://www.w3.org/1999/xlink" x="0px" y="0px"
	 viewBox="0 0 252.2 252.2" style="enable-background:new 0 0 252.2 252.2;" xml:space="preserve">
<style type="text/css">
	.st0{fill:#EF5350;stroke:#FFFFFF;stroke-width:3;stroke-miterlimit:10;}
	.st1{fill:#FFFFFF;}
</style>
<g>
	<polygon class="st0" points="126.1,16.2 145.7,2.1 160.1,21.6 183.1,14.2 190.7,37.2 214.9,37.3 215,61.5 238,69.1 230.6,92.2 
		250.1,106.5 236,126.1 250.1,145.7 230.6,160.1 238,183.1 215,190.7 214.9,214.9 190.7,215 183.1,238 160.1,230.6 145.7,250.1 
		126.1,236 106.5,250.1 92.2,230.6 69.1,238 61.5,215 37.3,214.9 37.2,190.7 14.2,183.1 21.6,160.1 2.1,145.7 16.2,126.1 2.1,106.5 
		21.6,92.2 14.2,69.1 37.2,61.5 37.3,37.3 61.5,37.2 69.1,14.2 92.2,21.6 106.5,2.1 	"/>
	<g>
		<path class="st1" d="M55.1,100.2h15.5v5.9H47.8V70.6h7.3V100.2z"/>
		<path class="st1" d="M82.6,106.1h-7.3V70.6h7.3V106.1z"/>
		<path class="st1" d="M110.7,90.7h-14v9.5h16.5v5.9H89.4V70.6h23.7v5.9H96.7V85h14V90.7z"/>
		<path class="st1" d="M146.3,106.1H139l-14.2-23.3v23.3h-7.3V70.6h7.3L139,94V70.6h7.3V106.1z"/>
		<path class="st1" d="M160.4,100.2h17.9v5.9h-27v-4.3l17.5-25.3h-17.5v-5.9h26.6v4.2L160.4,100.2z"/>
		<path class="st1" d="M211.4,89.2c0,3.5-0.6,6.6-1.9,9.2c-1.2,2.6-3,4.7-5.3,6.1c-2.3,1.4-4.9,2.1-7.9,2.1c-2.9,0-5.6-0.7-7.9-2.1
			c-2.3-1.4-4.1-3.4-5.4-6.1c-1.3-2.6-1.9-5.6-1.9-9v-1.8c0-3.5,0.6-6.6,1.9-9.2c1.3-2.7,3-4.7,5.3-6.1c2.3-1.4,4.9-2.1,7.9-2.1
			s5.6,0.7,7.9,2.1s4.1,3.5,5.3,6.1s1.9,5.7,1.9,9.2V89.2z M204,87.6c0-3.7-0.7-6.5-2-8.5c-1.3-1.9-3.2-2.9-5.7-2.9
			c-2.5,0-4.3,1-5.7,2.9c-1.3,1.9-2,4.7-2,8.4v1.7c0,3.6,0.7,6.4,2,8.4c1.3,2,3.2,3,5.7,3c2.5,0,4.3-1,5.7-2.9c1.3-1.9,2-4.7,2-8.4
			V87.6z"/>
		<path class="st1" d="M60.7,131.8l7.4-16h8l-11.6,22.6v12.9H57v-12.9l-11.6-22.6h8L60.7,131.8z"/>
		<path class="st1" d="M113.1,136.8H99v14.5h-7.3v-35.5h23.1v5.9H99v9.2h14V136.8z"/>
		<path class="st1" d="M148.2,134.4c0,3.5-0.6,6.6-1.9,9.2c-1.2,2.6-3,4.7-5.3,6.1c-2.3,1.4-4.9,2.1-7.9,2.1c-2.9,0-5.6-0.7-7.9-2.1
			c-2.3-1.4-4.1-3.4-5.4-6.1c-1.3-2.6-1.9-5.6-1.9-9.1v-1.8c0-3.5,0.6-6.6,1.9-9.2c1.3-2.7,3-4.7,5.3-6.1c2.3-1.4,4.9-2.1,7.9-2.1
			s5.6,0.7,7.9,2.1c2.3,1.4,4.1,3.5,5.3,6.1s1.9,5.7,1.9,9.2V134.4z M140.8,132.8c0-3.7-0.7-6.5-2-8.5c-1.3-1.9-3.2-2.9-5.7-2.9
			c-2.5,0-4.3,1-5.7,2.9c-1.3,1.9-2,4.7-2,8.4v1.7c0,3.6,0.7,6.4,2,8.4c1.3,2,3.2,3,5.7,3c2.5,0,4.3-1,5.7-2.9c1.3-1.9,2-4.7,2-8.4
			V132.8z"/>
		<path class="st1" d="M178.1,121.8h-10.9v29.5H160v-29.5h-10.7v-5.9h28.9V121.8z"/>
		<path class="st1" d="M210.8,134.4c0,3.5-0.6,6.6-1.9,9.2c-1.2,2.6-3,4.7-5.3,6.1c-2.3,1.4-4.9,2.1-7.9,2.1c-2.9,0-5.6-0.7-7.9-2.1
			c-2.3-1.4-4.1-3.4-5.4-6.1c-1.3-2.6-1.9-5.6-1.9-9.1v-1.8c0-3.5,0.6-6.6,1.9-9.2c1.3-2.7,3-4.7,5.3-6.1c2.3-1.4,4.9-2.1,7.9-2.1
			s5.6,0.7,7.9,2.1c2.3,1.4,4.1,3.5,5.3,6.1s1.9,5.7,1.9,9.2V134.4z M203.4,132.8c0-3.7-0.7-6.5-2-8.5c-1.3-1.9-3.2-2.9-5.7-2.9
			c-2.5,0-4.3,1-5.7,2.9c-1.3,1.9-2,4.7-2,8.4v1.7c0,3.6,0.7,6.4,2,8.4c1.3,2,3.2,3,5.7,3c2.5,0,4.3-1,5.7-2.9c1.3-1.9,2-4.7,2-8.4
			V132.8z"/>
		<path class="st1" d="M87.3,196.5H63v-4.8l11.5-12.2c1.6-1.7,2.7-3.2,3.5-4.5c0.8-1.3,1.1-2.5,1.1-3.7c0-1.6-0.4-2.8-1.2-3.7
			s-1.9-1.4-3.4-1.4c-1.6,0-2.8,0.5-3.8,1.6c-0.9,1.1-1.4,2.5-1.4,4.3h-7.1c0-2.2,0.5-4.1,1.5-5.9c1-1.8,2.5-3.2,4.4-4.2
			c1.9-1,4-1.5,6.4-1.5c3.7,0,6.5,0.9,8.5,2.6c2,1.8,3,4.2,3,7.4c0,1.8-0.5,3.5-1.4,5.4c-0.9,1.8-2.5,3.9-4.7,6.4l-8.1,8.5h15.3
			V196.5z"/>
		<path class="st1" d="M115.5,181.9c0,4.9-1,8.7-3,11.3c-2,2.6-5,3.9-8.9,3.9c-3.9,0-6.8-1.3-8.9-3.8c-2-2.5-3.1-6.2-3.1-11v-6.5
			c0-5,1-8.7,3.1-11.3c2.1-2.6,5-3.8,8.9-3.8s6.8,1.3,8.9,3.8c2,2.5,3.1,6.2,3.1,11V181.9z M108.4,174.7c0-2.9-0.4-5.1-1.2-6.4
			c-0.8-1.3-2.1-2-3.8-2c-1.7,0-2.9,0.6-3.7,1.9c-0.8,1.3-1.2,3.3-1.3,6v8.6c0,2.9,0.4,5,1.2,6.4c0.8,1.4,2,2.1,3.8,2.1
			c1.7,0,3-0.7,3.7-2c0.8-1.3,1.2-3.4,1.2-6.2V174.7z"/>
		<path class="st1" d="M126.1,173.1l-7.6-2.2l1.4-4.4l7.6,3l-0.5-8.5h4.8l-0.5,8.7l7.4-3l1.4,4.5l-7.8,2.2l5.1,6.5l-3.9,2.8
			l-4.4-7.1l-4.4,6.9l-3.9-2.6L126.1,173.1z"/>
		<path class="st1" d="M150,175.7h3.8c1.8,0,3.1-0.4,4-1.3c0.9-0.9,1.3-2.1,1.3-3.6c0-1.4-0.4-2.5-1.3-3.3c-0.9-0.8-2-1.2-3.5-1.2
			c-1.3,0-2.5,0.4-3.4,1.1c-0.9,0.7-1.4,1.7-1.4,2.9h-7c0-1.9,0.5-3.5,1.5-5c1-1.5,2.4-2.6,4.2-3.4s3.8-1.2,5.9-1.2
			c3.8,0,6.7,0.9,8.8,2.7c2.1,1.8,3.2,4.3,3.2,7.4c0,1.6-0.5,3.1-1.5,4.5c-1,1.4-2.3,2.4-3.9,3.1c2,0.7,3.5,1.8,4.5,3.2
			c1,1.4,1.5,3.1,1.5,5.1c0,3.2-1.1,5.7-3.4,7.6c-2.3,1.9-5.3,2.8-9.1,2.8c-3.5,0-6.4-0.9-8.7-2.8c-2.2-1.9-3.4-4.3-3.4-7.4h7
			c0,1.3,0.5,2.4,1.5,3.3s2.2,1.3,3.7,1.3c1.7,0,3-0.4,3.9-1.3c0.9-0.9,1.4-2.1,1.4-3.5c0-3.5-1.9-5.3-5.8-5.3H150V175.7z"/>
		<path class="st1" d="M195.3,181.9c0,4.9-1,8.7-3,11.3c-2,2.6-5,3.9-8.9,3.9c-3.9,0-6.8-1.3-8.9-3.8c-2-2.5-3.1-6.2-3.1-11v-6.5
			c0-5,1-8.7,3.1-11.3c2.1-2.6,5-3.8,8.9-3.8s6.8,1.3,8.9,3.8c2,2.5,3.1,6.2,3.1,11V181.9z M188.3,174.7c0-2.9-0.4-5.1-1.2-6.4
			c-0.8-1.3-2.1-2-3.8-2c-1.7,0-2.9,0.6-3.7,1.9c-0.8,1.3-1.2,3.3-1.3,6v8.6c0,2.9,0.4,5,1.2,6.4c0.8,1.4,2,2.1,3.8,2.1
			c1.7,0,3-0.7,3.7-2c0.8-1.3,1.2-3.4,1.2-6.2V174.7z"/>
	</g>
</g>
</svg>
